absl-py==0.7.1
alabaster==0.7.12
astor==0.8.0
attrs==19.2.0
Babel==2.7.0
backcall==0.1.0
beautifulsoup4==4.8.2
bleach==3.1.0
certifi==2019.9.11
chardet==3.0.4
cycler==0.10.0
Cython==0.29.13
decorator==4.4.0
defusedxml==0.6.0
docutils==0.15.2
empath==0.89
entrypoints==0.3
gast==0.2.2
google-pasta==0.1.7
grpcio==1.23.0
h5py==2.9.0
idna==2.8
imageio==2.5.0
imageio-ffmpeg==0.3.0
imagesize==1.1.0
imgaug==0.3.0
imutils==0.5.3
ipykernel==5.1.2
ipyparallel==6.2.4
ipython==7.8.0
ipython-genutils==0.2.0
ipywidgets==7.5.1
jedi==0.15.1
Jinja2==2.10.1
joblib==0.14.0
jsonschema==3.0.2
jupyter==1.0.0
jupyter-client==5.3.3
jupyter-console==6.0.0
jupyter-core==4.5.0
Keras==2.3.0
Keras-Applications==1.0.8
Keras-Preprocessing==1.1.0
kiwisolver==1.1.0
Markdown==3.1.1
MarkupSafe==1.1.1
matplotlib==3.1.1
mistune==0.8.4
moviepy==1.0.1
nbconvert==5.6.0
nbformat==4.4.0
networkx==2.3
nose==1.3.7
notebook==6.0.1
numpy==1.16.3
opencv-contrib-python==4.1.1.26
opencv-python==4.1.1.26
opencv-python-headless==4.1.1.26
packaging==19.2
pandas==0.25.1
pandocfilters==1.4.2
parso==0.5.1
pathlib==1.0.1
pexpect==4.7.0
pickleshare==0.7.5
Pillow==6.2.0
pkg-resources==0.0.0
proglog==0.1.9
prometheus-client==0.7.1
prompt-toolkit==2.0.9
protobuf==3.9.1
psutil==5.6.3
ptyprocess==0.6.0
pycocotools==2.0
Pygments==2.4.2
pyparsing==2.4.2
pyrsistent==0.15.4
python-dateutil==2.8.0
pytz==2019.2
PyWavelets==1.0.3
PyYAML==5.1.2
pyzmq==18.1.0
qtconsole==4.5.5
requests==2.22.0
scikit-image==0.15.0
scikit-learn==0.21.3
scipy==1.3.1
selenium==3.141.0
Send2Trash==1.5.0
Shapely==1.6.4.post2
simplejson==3.16.0
six==1.12.0
sklearn==0.0
slidingwindow==0.0.13
snowballstemmer==1.9.1
soupsieve==1.9.5
SpeechRecognition==3.8.1
Sphinx==2.2.0
sphinxcontrib-applehelp==1.0.1
sphinxcontrib-devhelp==1.0.1
sphinxcontrib-htmlhelp==1.0.2
sphinxcontrib-jsmath==1.0.1
sphinxcontrib-qthelp==1.0.2
sphinxcontrib-serializinghtml==1.1.3
tensorboard==1.14.0
tensorflow==1.14.0
tensorflow-estimator==1.14.0
termcolor==1.1.0
terminado==0.8.2
testpath==0.4.2
tf==1.0.0
tornado==6.0.3
tqdm==4.36.1
traitlets==4.3.2
urllib3==1.25.6
vaderSentiment==3.2.1
wcwidth==0.1.7
webencodings==0.5.1
Werkzeug==0.15.5
widgetsnbextension==3.5.1
wrapt==1.11.2
xlwt==1.3.0
